…
``` r
anti_join(bakers_df, bakes_df, by = c("series", "baker"))
```

    ## # A tibble: 26 × 5
    ##    baker  series baker_age baker_occupation               hometown     
    ##    <chr>   <dbl>     <dbl> <chr>                          <chr>        
    ##  1 Alice      10        28 Geography teacher              Essex        
    ##  2 Amelia     10        24 Fashion designer               Halifax      
    ##  3 Antony      9        30 Banker                         London       
    ##  4 Briony      9        33 Full-time parent               Bristol      
    ##  5 Dan         9        36 Full-time parent               London       
    ##  6 Dan        10        32 Support worker                 Rotherham    
    ##  7 David      10        36 International health adviser   Whitby       
    ##  8 Helena     10        40 Online project manager         Leeds        
    ##  9 Henry      10        20 Student                        Durham       
    ## 10 Imelda      9        33 Countryside recreation officer County Tyrone
    ## # ℹ 16 more rows
…
